Create a Propensity Score Object — calc_prop_scr • beastt
…
# This can be used for both continuous and binary data
library(dplyr)
# Continuous
calc_prop_scr(internal_df = filter(int_norm_df, trt == 0),
                       external_df = ex_norm_df,
                       id_col = subjid,
                       model = ~ cov1 + cov2 + cov3 + cov4)
#> 
#> ── Model ───────────────────────────────────────────────────────────────────────
#> • cov1 + cov2 + cov3 + cov4
#> 
#> ── Propensity Scores and Weights ───────────────────────────────────────────────
#> • Effective sample size of the external arm: 61
#> # A tibble: 150 × 4
#>    subjid Internal `Propensity Score` `Inverse Probability Weight`
#>     <int> <lgl>                 <dbl>                        <dbl>
#>  1      1 FALSE                 0.181                        0.221
#>  2      2 FALSE                 0.351                        0.542
#>  3      3 FALSE                 0.456                        0.840
#>  4      4 FALSE                 0.115                        0.130
#>  5      5 FALSE                 0.364                        0.572
#>  6      6 FALSE                 0.377                        0.604
#>  7      7 FALSE                 0.131                        0.150
#>  8      8 FALSE                 0.259                        0.349
#>  9      9 FALSE                 0.235                        0.308
#> 10     10 FALSE                 0.207                        0.261
#> # ℹ 140 more rows
…
#> 2 cov2          0.0548  0.104  
#> 3 cov3          0.0667  0.00115
#> 4 cov4          0.275   0.00266
# Binary
calc_prop_scr(internal_df = filter(int_binary_df, trt == 0),
                       external_df = ex_binary_df,
                       id_col = subjid,
                       model = ~ cov1 + cov2 + cov3 + cov4)
#> 
#> ── Model ───────────────────────────────────────────────────────────────────────
#> • cov1 + cov2 + cov3 + cov4
#> 
#> ── Propensity Scores and Weights ───────────────────────────────────────────────
#> • Effective sample size of the external arm: 81
#> # A tibble: 150 × 4
#>    subjid Internal `Propensity Score` `Inverse Probability Weight`
#>     <int> <lgl>                 <dbl>                        <dbl>
#>  1      1 FALSE                 0.333                        0.500
#>  2      2 FALSE                 0.288                        0.405
#>  3      3 FALSE                 0.539                        1.17 
#>  4      4 FALSE                 0.546                        1.20 
#>  5      5 FALSE                 0.344                        0.524
#>  6      6 FALSE                 0.393                        0.646
#>  7      7 FALSE                 0.390                        0.639
#>  8      8 FALSE                 0.340                        0.515
#>  9      9 FALSE                 0.227                        0.294
#> 10     10 FALSE                 0.280                        0.389
#> # ℹ 140 more rows
…
