Continuous Case • beastt
…
ps_model <- ~ cov1 + cov2 + cov3 + cov4
ps_obj <- calc_prop_scr(internal_df = internal_df, 
                        external_df = external_df, 
                        id_col = subjid,
                          model = ps_model)

ps_obj
#> 
#> ── Model ───────────────────────────────────────────────────────────────────────
#> • cov1 + cov2 + cov3 + cov4
#> 
#> ── Propensity Scores and Weights ───────────────────────────────────────────────
#> # A tibble: 150 × 4
#>    subjid Internal `Propensity Score` `Inverse Probablity Weight`
#>     <int> <lgl>                 <dbl>                       <dbl>
#>  1      1 FALSE                 0.314                       0.458
#>  2      2 FALSE                 0.365                       0.576
#>  3      3 FALSE                 0.618                       1.62 
#>  4      4 FALSE                 0.406                       0.684
#>  5      5 FALSE                 0.406                       0.684
#>  6      6 FALSE                 0.644                       1.81 
#>  7      7 FALSE                 0.515                       1.06 
#>  8      8 FALSE                 0.245                       0.324
#>  9      9 FALSE                 0.302                       0.432
#> 10     10 FALSE                 0.339                       0.514
#> # ℹ 140 more rows
…
