Time-to-Event Outcome • beastt
…
ps_obj <- calc_prop_scr(internal_df = filter(int_tte_df, trt == 0),
                        external_df = ex_tte_df,
                        id_col = subjid,
                        model = ~ cov1 + cov2 + cov3 + cov4)
ps_obj
#> 
#> ── Model ───────────────────────────────────────────────────────────────────────
#> • cov1 + cov2 + cov3 + cov4
#> 
#> ── Propensity Scores and Weights ───────────────────────────────────────────────
#> • Effective sample size of the external arm: 81
#> # A tibble: 150 × 4
#>    subjid Internal `Propensity Score` `Inverse Probability Weight`
#>     <int> <lgl>                 <dbl>                        <dbl>
#>  1      1 FALSE                 0.333                        0.500
#>  2      2 FALSE                 0.288                        0.405
#>  3      3 FALSE                 0.539                        1.17 
#>  4      4 FALSE                 0.546                        1.20 
#>  5      5 FALSE                 0.344                        0.524
#>  6      6 FALSE                 0.393                        0.646
#>  7      7 FALSE                 0.390                        0.639
#>  8      8 FALSE                 0.340                        0.515
#>  9      9 FALSE                 0.227                        0.294
#> 10     10 FALSE                 0.280                        0.389
#> # ℹ 140 more rows
…
